Regexes
…
## ── Conflicts ────────────────────────────────────────── tidyverse_conflicts() ──
## x dplyr::filter() masks stats::filter()
## x dplyr::lag()    masks stats::lag()

library(stringr)
## Filter out rows with missing file names
suppfilenames <- suppfilenames %>% 
  filter(!map_lgl(SuppFileNames, ~ inherits(., "try-error")))
suppfilenames %>% select(Accession, PDAT, SuppFileNames)

## # A tibble: 8,882 × 3
##    Accession PDAT       SuppFileNames
##    <chr>     <chr>      <list>       
##  1 GSE98414  2017/06/17 <chr [2]>    
##  2 GSE98413  2017/06/17 <chr [2]>    
##  3 GSE83480  2017/06/17 <chr [2]>    
##  4 GSE78140  2017/06/16 <chr [2]>    
##  5 GSE98273  2017/06/16 <chr [1]>    
##  6 GSE89134  2017/06/16 <chr [4]>    
##  7 GSE89206  2017/06/16 <chr [2]>    
##  8 GSE89205  2017/06/16 <chr [1]>    
##  9 GSE100106 2017/06/16 <chr [2]>    
## 10 GSE100077 2017/06/16 <chr [2]>    
## # … with 8,872 more rows

## unnest supplementary file names
supfn <-  suppfilenames %>% unnest(SuppFileNames)
supfn %>% select(Accession, PDAT, SuppFileNames)

## # A tibble: 23,118 × 3
##    Accession PDAT       SuppFileNames                               
##    <chr>     <chr>      <chr>                                       
##  1 GSE98414  2017/06/17 filelist.txt                                
##  2 GSE98414  2017/06/17 GSE98414_RAW.tar                            
##  3 GSE98413  2017/06/17 GSE98413_Junb_counts_normalized.tab.gz      
##  4 GSE98413  2017/06/17 GSE98413_Junb_counts_raw.tab.gz             
##  5 GSE83480  2017/06/17 filelist.txt                                
##  6 GSE83480  2017/06/17 GSE83480_RAW.tar                            
##  7 GSE78140  2017/06/16 filelist.txt                                
##  8 GSE78140  2017/06/16 GSE78140_RAW.tar                            
##  9 GSE98273  2017/06/16 GSE98273_genes.fpkm_tracking.txt.gz         
## 10 GSE89134  2017/06/16 GSE89134_CentralMemoryVsControlNPDay8.txt.gz
## # … with 23,108 more rows
…
## [1] 6

str_length("")

## [1] 0

Length of supplementary file names.

supfn <- supfn %>% 
  select(Accession, PDAT, SuppFileNames) %>% 
  mutate(strlen = str_length(SuppFileNames))
supfn

## # A tibble: 23,118 × 4
##    Accession PDAT       SuppFileNames                                strlen
##    <chr>     <chr>      <chr>                                         <int>
##  1 GSE98414  2017/06/17 filelist.txt                                     12
##  2 GSE98414  2017/06/17 GSE98414_RAW.tar                                 16
##  3 GSE98413  2017/06/17 GSE98413_Junb_counts_normalized.tab.gz           38
##  4 GSE98413  2017/06/17 GSE98413_Junb_counts_raw.tab.gz                  31
##  5 GSE83480  2017/06/17 filelist.txt                                     12
##  6 GSE83480  2017/06/17 GSE83480_RAW.tar                                 16
##  7 GSE78140  2017/06/16 filelist.txt                                     12
##  8 GSE78140  2017/06/16 GSE78140_RAW.tar                                 16
##  9 GSE98273  2017/06/16 GSE98273_genes.fpkm_tracking.txt.gz              35
## 10 GSE89134  2017/06/16 GSE89134_CentralMemoryVsControlNPDay8.txt.gz     44
## # … with 23,108 more rows
…
Let’s look at the filenames

# Single most common filename: filelist.txt
most_common_filename <- supfn %>% 
  group_by(SuppFileNames) %>% 
  summarise(N = n()) %>% 
  arrange(desc(N))
most_common_filename

## # A tibble: 17,697 × 2
##    SuppFileNames                               N
##    <chr>                                   <int>
##  1 filelist.txt                             5422
##  2 GSE100067_Expression_table.txt.gz           1
##  3 GSE100077_Counts.csv.gz                     1
##  4 GSE100077_DifferentialExpression.csv.gz     1
##  5 GSE100106_RAW.tar                           1
##  6 GSE11724_RAW.tar                            1
##  7 GSE11892_RAW.tar                            1
##  8 GSE12075_RAW.tar                            1
##  9 GSE12946_RAW.tar                            1
## 10 GSE13652_RAW.tar                            1
## # … with 17,687 more rows

String manipulation

Filenames are prepended with GSE id

# Supplemental file names with more than N = 10 occurences
cf <- supfn %>%
  mutate(common_filenames = str_replace(SuppFileNames, "GSE[0-9]+_", ""),
         common_filenames = str_replace(common_filenames, "\\.gz$", ""),
         common_filenames = str_to_lower(common_filenames))
cf

## # A tibble: 23,118 × 5
##    Accession PDAT       SuppFileNames              strlen common_filenames      
##    <chr>     <chr>      <chr>                       <int> <chr>                 
##  1 GSE98414  2017/06/17 filelist.txt                   12 filelist.txt          
##  2 GSE98414  2017/06/17 GSE98414_RAW.tar               16 raw.tar               
##  3 GSE98413  2017/06/17 GSE98413_Junb_counts_norm…     38 junb_counts_normalize…
##  4 GSE98413  2017/06/17 GSE98413_Junb_counts_raw.…     31 junb_counts_raw.tab   
##  5 GSE83480  2017/06/17 filelist.txt                   12 filelist.txt          
##  6 GSE83480  2017/06/17 GSE83480_RAW.tar               16 raw.tar               
##  7 GSE78140  2017/06/16 filelist.txt                   12 filelist.txt          
##  8 GSE78140  2017/06/16 GSE78140_RAW.tar               16 raw.tar               
##  9 GSE98273  2017/06/16 GSE98273_genes.fpkm_track…     35 genes.fpkm_tracking.t…
## 10 GSE89134  2017/06/16 GSE89134_CentralMemoryVsC…     44 centralmemoryvscontro…
## # … with 23,108 more rows
…
## [1] "tar(\\.gz|\\.bz2)?$|gtf(\\.gz|\\.bz2)?$|(big)?bed(\\.txt|12|graph|pk)?(\\.gz|\\.bz2)?$|bw(\\.gz|\\.bz2)?$|wig(\\.gz|\\.bz2)?$|hic(\\.gz|\\.bz2)?$|gct(x)?(\\.gz|\\.bz2)?$|tdf(\\.gz|\\.bz2)?$|gff(3)?(\\.gz|\\.bz2)?$|pdf(\\.gz|\\.bz2)?$|png(\\.gz|\\.bz2)?$|zip(\\.gz|\\.bz2)?$|sif(\\.gz|\\.bz2)?$|narrowpeak(\\.gz|\\.bz2)?$|fa(\\.gz|\\.bz2)?$|r$(\\.gz|\\.bz2)?$|rda(ta)?$(\\.gz|\\.bz2)?$"

suppfiles_of_interest <- supfn %>%
  filter(!str_detect(tolower(SuppFileNames), out_string1),
         !str_detect(tolower(SuppFileNames), paste0(out_string2, "(\\.gz|\\.bz2)?$", collapse = "|"))) %>%
  mutate(filext = str_extract(str_to_lower(SuppFileNames), "\\.[:alpha:]+([:punct:][bgz2]+)?$"))
suppfiles_of_interest

## # A tibble: 7,928 × 5
##    Accession PDAT       SuppFileNames                              strlen filext
##    <chr>     <chr>      <chr>                                       <int> <chr> 
##  1 GSE98413  2017/06/17 GSE98413_Junb_counts_normalized.tab.gz         38 .tab.…
##  2 GSE98413  2017/06/17 GSE98413_Junb_counts_raw.tab.gz                31 .tab.…
##  3 GSE98273  2017/06/16 GSE98273_genes.fpkm_tracking.txt.gz            35 .txt.…
##  4 GSE89134  2017/06/16 GSE89134_CentralMemoryVsControlNPDay8.txt…     44 .txt.…
##  5 GSE89134  2017/06/16 GSE89134_Counts.txt.gz                         22 .txt.…
##  6 GSE89134  2017/06/16 GSE89134_Foxo1NPDay8VsControlNPDay8.txt.gz     42 .txt.…
##  7 GSE89134  2017/06/16 GSE89134_log2NormalizedCPM.txt.gz              33 .txt.…
##  8 GSE89205  2017/06/16 GSE89205_genes.fpkm_tracking.txt.gz            35 .txt.…
##  9 GSE100077 2017/06/16 GSE100077_Counts.csv.gz                        23 .csv.…
## 10 GSE100077 2017/06/16 GSE100077_DifferentialExpression.csv.gz        39 .csv.…
## # … with 7,918 more rows
…
Look for a word

Let’s find summaries containing word “CRISPR”.

crispr <- suppfilenames %>% 
  filter(str_detect(str_to_lower(summary), "crispr"))
crispr

## # A tibble: 95 × 29
##    Id        Accession GDS   title  summary  GPL   GSE   taxon entryType gdsType
##    <chr>     <chr>     <chr> <chr>  <chr>    <chr> <chr> <chr> <chr>     <chr>  
##  1 200095383 GSE95383  ""    Expre… The Pol… 21273 95383 Mus … GSE       Expres…
##  2 200099819 GSE99819  ""    Genom… The mam… 18573 99819 Homo… GSE       Expres…
##  3 200078519 GSE78519  ""    Capic… We perf… 16791 78519 Homo… GSE       Expres…
##  4 200095455 GSE95455  ""    Asses… HeLa ce… 16791 95455 Homo… GSE       Expres…
##  5 200095452 GSE95452  ""    Asses… By comp… 16791 95452 Homo… GSE       Expres…
##  6 200093681 GSE93681  ""    CRISP… Epstein… 18573 93681 Homo… GSE       Expres…
##  7 200098063 GSE98063  ""    Mll3 … Monomet… 19057 98063 Mus … GSE       Expres…
##  8 200093395 GSE93395  ""    Gene … Recent … 11154 93395 Homo… GSE       Expres…
##  9 200098177 GSE98177  ""    Trans… We prev… 20301 98177 Homo… GSE       Expres…
## 10 200083296 GSE83296  ""    Genom… Gene ex… 18573 83296 Homo… GSE       Expres…
## # … with 85 more rows, and 19 more variables: ptechType <chr>, valType <chr>,
## #   SSInfo <chr>, subsetInfo <chr>, PDAT <chr>, suppFile <chr>, Samples <chr>,
## #   Relations <chr>, ExtRelations <chr>, n_samples <chr>, SeriesTitle <chr>,
## #   PlatformTitle <chr>, PlatformTaxa <chr>, SamplesTaxa <chr>,
## #   PubMedIds <chr>, Projects <chr>, FTPLink <chr>, GEO2R <chr>,
## #   SuppFileNames <list>
…
Let’s split

str_split("A\nB", "\n")

## [[1]]
## [1] "A" "B"

Split summaries by word boundaries/whitespace.

sums <- suppfilenames %>%
  # sample_n(10) %>% 
  select(summary, Accession)
sums

## # A tibble: 8,882 × 2
##    summary                                                             Accession
##    <chr>                                                               <chr>    
##  1 This SuperSeries is composed of the SubSeries listed below.         GSE98414 
##  2 Here we identify the activator protein-1 (AP-1) factor JunB as an … GSE98413 
##  3 Analysis of whole gene expression during differentiation from hiPS… GSE83480 
##  4 Single-cell epigenome sequencing techniques have recently been dev… GSE78140 
##  5 We searched for roles of ZEB1and/or ZEB2 during EMT by RNA-seq in … GSE98273 
##  6 RNAseq of ex vivo CD8 T cell lineages and in vitro differentiated … GSE89134 
##  7 This SuperSeries is composed of the SubSeries listed below. Zinc f… GSE89206 
##  8 We searched for roles of ZEB1 during EMT by RNA-seq in breast canc… GSE89205 
##  9 Outputs from scRNA seq reads from isolated Mouse E16 and P4 lacrim… GSE100106
## 10 Immunodeficient mouse models have been valuable for studies of hum… GSE100077
## # … with 8,872 more rows
…
Use of str_split within dplyr

sums %>%
  sample_n(10) %>% 
  mutate(words = str_split(summary, "\\s")) %>% 
  select(-summary) %>% 
  unnest %>% 
  count(words) %>% 
  arrange(desc(n))

## Warning: `cols` is now required when using unnest().
## Please use `cols = c(words)`

## # A tibble: 547 × 2
##    words     n
##    <chr> <int>
##  1 the      44
##  2 and      41
##  3 of       39
##  4 in       27
##  5 to       25
##  6 a        11
##  7 cells     9
##  8 that      9
##  9 by        8
## 10 cell      8
## # … with 537 more rows
…
A token is a meaningful unit of text, such as a word,

tokenizing is splitting text to meaningful units

Book: http://tidytextmining.com

Unnest tokens (words)

# install.packages("tidytext")
library(tidytext)
tidy_sums <- sums %>% 
  unnest_tokens(word, summary)
tidy_sums

## # A tibble: 899,380 × 2
##    Accession word       
##    <chr>     <chr>      
##  1 GSE98414  this       
##  2 GSE98414  superseries
##  3 GSE98414  is         
##  4 GSE98414  composed   
##  5 GSE98414  of         
##  6 GSE98414  the        
##  7 GSE98414  subseries  
##  8 GSE98414  listed     
##  9 GSE98414  below      
## 10 GSE98413  here       
## # … with 899,370 more rows

Now that the data is in one-word-per-row format..

We will want to remove stop words; stop words are words that are not useful for an analysis, typically extremely common words such as “the”, “of”, “to”, and so forth in English. We can remove stop words (kept in the tidytext dataset stop_words) with an anti_join().

data(stop_words)
tidy_sums <- tidy_sums %>%
  anti_join(stop_words)

## Joining, by = "word"

tidy_sums

## # A tibble: 560,867 × 2
##    Accession word       
##    <chr>     <chr>      
##  1 GSE98414  superseries
##  2 GSE98414  composed   
##  3 GSE98414  subseries  
##  4 GSE98414  listed     
##  5 GSE98413  identify   
##  6 GSE98413  activator  
##  7 GSE98413  protein    
##  8 GSE98413  1          
##  9 GSE98413  ap         
## 10 GSE98413  1          
## # … with 560,857 more rows

Now we can count words.

tidy_sums %>%
  count(word, sort = TRUE)

## # A tibble: 28,086 × 2
##    word           n
##    <chr>      <int>
##  1 cells       8695
##  2 rna         7192
##  3 cell        6485
##  4 expression  6259
##  5 genes       5200
##  6 gene        4623
##  7 seq         4488
##  8 data        3088
##  9 human       2966
## 10 http        2917
## # … with 28,076 more rows
…
Sentiment analysis

What is the tone of research abstracts?

library(textdata)
get_sentiments()

## # A tibble: 6,786 × 2
##    word        sentiment
##    <chr>       <chr>    
##  1 2-faces     negative 
##  2 abnormal    negative 
##  3 abolish     negative 
##  4 abominable  negative 
##  5 abominably  negative 
##  6 abominate   negative 
##  7 abomination negative 
##  8 abort       negative 
##  9 aborted     negative 
## 10 aborts      negative 
## # … with 6,776 more rows
…
get_sentiments(lexicon = "bing")$sentiment %>% unique()

## [1] "negative" "positive"

summary_sentiments <- tidy_sums %>% 
  inner_join(get_sentiments("bing")) %>% 
  count(Accession, sentiment) %>% 
  pivot_wider(names_from = sentiment, values_from = n, values_fill = 0) %>%
  mutate(sentiment = positive - negative)

## Joining, by = "word"

summary_sentiments

## # A tibble: 5,593 × 4
##    Accession negative positive sentiment
##    <chr>        <int>    <int>     <int>
##  1 GSE100067        3        5         2
##  2 GSE100077        0        5         5
##  3 GSE100106        1        0        -1
##  4 GSE11724         0        2         2
##  5 GSE11892         0        1         1
##  6 GSE13652         0        2         2
##  7 GSE14092        11        4        -7
##  8 GSE14605         0        4         4
##  9 GSE15780         2        0        -2
## 10 GSE16190         2        5         3
## # … with 5,583 more rows
…
Most negative summary:

summary_sentiments %>% 
  arrange(sentiment) %>%
  left_join(select(suppfilenames, Accession, summary))

## Joining, by = "Accession"

## # A tibble: 5,593 × 5
##    Accession negative positive sentiment summary                                
##    <chr>        <int>    <int>     <int> <chr>                                  
##  1 GSE85013        28        0       -28 "Background: Despite of extensive rese…
##  2 GSE79423        27        3       -24 "Systematic analyses of the temporal d…
##  3 GSE85541        23        2       -21 "Anti-androgen therapies including the…
##  4 GSE86922        23        3       -20 "Caspases regulate cell death programs…
##  5 GSE63756        20        2       -18 "Endoplasmic reticulum (ER) stress occ…
##  6 GSE68140        18        1       -17 "We report positional cloning and char…
##  7 GSE80160        19        2       -17 "Diet-induced obesity is characterized…
##  8 GSE90478        21        4       -17 "Toxoplasma gondii is a ubiquitous api…
##  9 GSE93999        20        3       -17 "The influenza A virus is an acute con…
## 10 GSE68713        17        1       -16 "Maternal stress, anxiety, and depress…
## # … with 5,583 more rows
…
